[{"id":1,"email":"pglidden0@edublogs.org","password":"rSvb18CUdYw","name":"Portia","status":true},
{"id":2,"email":"ptheriot1@a8.net","password":"nnRTtE7wCfM","name":"Pammi","status":false},
{"id":3,"email":"cclaige2@booking.com","password":"OFwG80rihPck","name":"Conni","status":true},
{"id":4,"email":"cgaffer3@twitter.com","password":"ZB4xhWx0ra","name":"Carlie","status":true},
{"id":5,"email":"gverrechia4@goo.gl","password":"QoCxdtq","name":"Guglielmo","status":true},
{"id":6,"email":"ncomo5@alibaba.com","password":"10HNfmGOHJ","name":"Nadia","status":false},
{"id":7,"email":"apollard6@bloomberg.com","password":"AymMaL9db","name":"Arvy","status":false},
{"id":8,"email":"cwiddows7@google.pl","password":"xFrAF4Ry7","name":"Chrissy","status":false},
{"id":9,"email":"gcadlock8@lulu.com","password":"guAgIldcof","name":"Gordan","status":true},
{"id":10,"email":"memberton9@tuttocitta.it","password":"7tYSDsxhC2","name":"Melosa","status":true},
{"id":11,"email":"kmarrowa@unicef.org","password":"QIRAUd9VJEMB","name":"Kristien","status":false},
{"id":12,"email":"hkorfmannb@boston.com","password":"MMEStf6U4wt","name":"Haleigh","status":true},
{"id":13,"email":"pmancktelowc@wisc.edu","password":"Zqc2nTBwR","name":"Pearl","status":false},
{"id":14,"email":"ipfeifferd@jugem.jp","password":"cMWz5e","name":"Izaak","status":true},
{"id":15,"email":"barbore@vkontakte.ru","password":"rI5g9RF","name":"Byron","status":false},
{"id":16,"email":"astieblerf@cornell.edu","password":"mjOIsgn","name":"Auroora","status":true},
{"id":17,"email":"pmorrillyg@si.edu","password":"zbODImVG","name":"Prentice","status":false},
{"id":18,"email":"layceh@rambler.ru","password":"4Y9I70pt","name":"Lorianne","status":true},
{"id":19,"email":"stinmouthi@theguardian.com","password":"1UnfY8","name":"Sophey","status":true},
{"id":20,"email":"caxlebyj@google.cn","password":"BNZ3xKXg36","name":"Cyrillus","status":true},
{"id":21,"email":"bheinritzk@devhub.com","password":"PNzrSkQlsMUh","name":"Bridget","status":true},
{"id":22,"email":"byurchishinl@disqus.com","password":"0sNvOCQCEfM","name":"Britta","status":true},
{"id":23,"email":"nhamperm@tumblr.com","password":"AyVH6k65N","name":"Nani","status":false},
{"id":24,"email":"oangeln@vistaprint.com","password":"JLCOkSGG","name":"Olive","status":true},
{"id":25,"email":"mtrevero@newsvine.com","password":"1VZuAL49","name":"Marvin","status":true},
{"id":26,"email":"ctutsellp@issuu.com","password":"P7svvVVMMa","name":"Celestyn","status":false},
{"id":27,"email":"lbilverstoneq@dagondesign.com","password":"x0COXo","name":"Levey","status":false},
{"id":28,"email":"npearder@booking.com","password":"8wAxa7z5i","name":"Novelia","status":true},
{"id":29,"email":"tdrissells@earthlink.net","password":"GJ5E64hw32Q","name":"Thomasine","status":true},
{"id":30,"email":"cdachst@walmart.com","password":"d0PEAo","name":"Cherry","status":false},
{"id":31,"email":"fguitonneauu@amazon.com","password":"UorOe6ZYx","name":"Fowler","status":false},
{"id":32,"email":"adoigv@hc360.com","password":"LmbZhnzoJC","name":"Ana","status":false},
{"id":33,"email":"sgricew@hexun.com","password":"FFzN5v7zg90V","name":"Sherye","status":false},
{"id":34,"email":"tmckibbenx@reddit.com","password":"7ovHGg","name":"Tremaine","status":true},
{"id":35,"email":"berikssony@woothemes.com","password":"JJodKwGL","name":"Brendan","status":false},
{"id":36,"email":"thuguenetz@salon.com","password":"ma3q8iU","name":"Tamas","status":true},
{"id":37,"email":"drook10@ocn.ne.jp","password":"lG4KMwI21Oz","name":"Dianna","status":false},
{"id":38,"email":"kbelt11@printfriendly.com","password":"Z1bKApbdqp","name":"Kayne","status":false},
{"id":39,"email":"tlanktree12@shinystat.com","password":"6EJHk70yjQ","name":"Thelma","status":true},
{"id":40,"email":"hockendon13@nyu.edu","password":"pi5xSTdk","name":"Hart","status":false},
{"id":41,"email":"possenna14@bloomberg.com","password":"2DSqTpAHWPd","name":"Perry","status":false},
{"id":42,"email":"hhambric15@youtu.be","password":"ClQ95iwC6fD4","name":"Heinrik","status":false},
{"id":43,"email":"dchelnam16@jalbum.net","password":"wVw22CVS","name":"Dorotea","status":false},
{"id":44,"email":"pguirard17@myspace.com","password":"Cg0ATcBxIGCQ","name":"Pat","status":false},
{"id":45,"email":"bbirtchnell18@ft.com","password":"m7Y1Or7","name":"Beryle","status":false},
{"id":46,"email":"cheadington19@nps.gov","password":"59r3Um7d","name":"Craggy","status":true},
{"id":47,"email":"bkilleley1a@amazon.co.jp","password":"1RPa2CTVce3","name":"Barry","status":true},
{"id":48,"email":"mdancer1b@creativecommons.org","password":"q8rDk9","name":"Marthena","status":true},
{"id":49,"email":"riiannone1c@omniture.com","password":"6a10NnTh4T","name":"Rudie","status":true},
{"id":50,"email":"vcompford1d@sun.com","password":"GSC44qShoB3","name":"Virge","status":false}]